Introduction to Epidemiological Forecasting - 8 Overview
…
str(out$metadata)

#> List of 2
#>  $ training        :List of 3
#>   ..$ geo_type : chr "state"
#>   ..$ time_type: chr "day"
#>   ..$ as_of    : POSIXct[1:1], format: "2022-05-31 12:08:25"
#>  $ forecast_created: POSIXct[1:1], format: "2023-06-19 20:31:07"

The predictions in a tibble. The columns give the predictions for each location along with additional columns. By default, these are a 90% predictive interval, the forecast_date (the date on which the forecast was putatively made) and the target_date (the date for which the forecast is being made).

out$predictions

#> # A tibble: 56 × 5
#>   geo_value  .pred         .pred_distn forecast_date target_date
#>   <chr>      <dbl>              <dist> <date>        <date>     
#> 1 ak        0.355  [0.05, 0.95]<q-rng> 2021-12-31    2022-01-07 
#> 2 al        0.325  [0.05, 0.95]<q-rng> 2021-12-31    2022-01-07 
#> 3 ar        0.496  [0.05, 0.95]<q-rng> 2021-12-31    2022-01-07 
#> 4 as        0.0836 [0.05, 0.95]<q-rng> 2021-12-31    2022-01-07 
#> 5 az        0.614  [0.05, 0.95]<q-rng> 2021-12-31    2022-01-07 
#> 6 ca        0.327  [0.05, 0.95]<q-rng> 2021-12-31    2022-01-07 
#> # ℹ 50 more rows
…
The column .pred_dstn in the predictions object is actually a “distribution” here parameterized by its quantiles. For this default forecaster, these are created using the quantiles of the residuals of the predictive model (possibly symmetrized). Here, we used 23 quantiles, but one can grab a particular quantile,

head(quantile(out_q$predictions$.pred_distn, p = .4))

#>        40%        40%        40%        40%        40%        40% 
#> 0.30277798 0.27213225 0.44345734 0.03120647 0.56121844 0.27492711

or extract the entire distribution into a “long” epi_df with tau being the probability and q being the value associated to that quantile.

out_q$predictions %>%
  # first create a "nested" list-column
  mutate(.pred_distn = nested_quantiles(.pred_distn)) %>%
  unnest(.pred_distn) # then unnest it

#> # A tibble: 1,288 × 6
#>   geo_value .pred      q   tau forecast_date target_date
#>   <chr>     <dbl>  <dbl> <dbl> <date>        <date>     
#> 1 ak        0.355 0      0.01  2021-12-31    2022-01-07 
#> 2 ak        0.355 0      0.025 2021-12-31    2022-01-07 
#> 3 ak        0.355 0.0371 0.05  2021-12-31    2022-01-07 
#> 4 ak        0.355 0.123  0.1   2021-12-31    2022-01-07 
#> 5 ak        0.355 0.174  0.15  2021-12-31    2022-01-07 
#> 6 ak        0.355 0.211  0.2   2021-12-31    2022-01-07 
#> # ℹ 1,282 more rows
…
