Introduction to Epidemiological Forecasting - 2 Introducing the flatline forecaster
…
2.1.2 A brief introduction to the dataset

We will use the case_death_rate_subset dataset that comes with the epipredict package. In brief, this is a subset of the JHU daily COVID-19 cases and deaths by state. While this dataset ranges from Dec 31, 2020 to Dec 31, 2021, we will only consider a small subset at the end of that range to keep our example relatively simple.

jhu <- case_death_rate_subset %>%
  dplyr::filter(time_value >= as.Date("2021-09-01"))

jhu

#> An `epi_df` object, 6,832 x 4 with metadata:
#> * geo_type  = state
#> * time_type = day
#> * as_of     = 2022-05-31 12:08:25
#> 
#> # A tibble: 6,832 × 4
#>   geo_value time_value case_rate death_rate
#> * <chr>     <date>         <dbl>      <dbl>
#> 1 ak        2021-09-01      75.3      0.198
#> 2 al        2021-09-01     113.       0.845
#> 3 ar        2021-09-01      68.5      0.919
#> 4 as        2021-09-01       0        0    
#> 5 az        2021-09-01      48.8      0.414
#> 6 ca        2021-09-01      38.4      0.246
#> # ℹ 6,826 more rows

2.1.3 The basic mechanics of the flatline forecaster

The simplest to create and train a flatline forecaster to predict the death rate one week into the future, is to input the epi_df and the name of the column from it that we want to predict in the flatline_forecaster function.

one_week_ahead <- flatline_forecaster(jhu, outcome = "death_rate")
one_week_ahead

#> $predictions
#> An `epi_df` object, 56 x 6 with metadata:
#> * geo_type  = state
#> * time_type = day
#> * as_of     = 2022-05-31 12:08:25
#> 
#> # A tibble: 56 × 6
#>   geo_value time_value  .pred         .pred_distn forecast_date target_date
#> * <chr>     <date>      <dbl>              <dist> <date>        <date>     
#> 1 ak        2021-12-31 0.0395 [0.05, 0.95]<q-rng> 2021-12-31    2022-01-07 
#> 2 al        2021-12-31 0.107  [0.05, 0.95]<q-rng> 2021-12-31    2022-01-07 
#> 3 ar        2021-12-31 0.490  [0.05, 0.95]<q-rng> 2021-12-31    2022-01-07 
#> 4 as        2021-12-31 0      [0.05, 0.95]<q-rng> 2021-12-31    2022-01-07 
#> 5 az        2021-12-31 0.608  [0.05, 0.95]<q-rng> 2021-12-31    2022-01-07 
#> 6 ca        2021-12-31 0.142  [0.05, 0.95]<q-rng> 2021-12-31    2022-01-07 
#> # ℹ 50 more rows
#> 
#> $epi_workflow
#> ══ Epi Workflow [trained] ═══════════════════════════════════════════════════
#> Preprocessor: Recipe
#> Model: linear_reg()
#> Postprocessor: Frosting
#> 
#> ── Preprocessor ─────────────────────────────────────────────────────────────
#> 1 Recipe Step
#> 
#> • step_epi_ahead()
#> 
#> ── Model ────────────────────────────────────────────────────────────────────
#> $residuals
#> # A tibble: 7,224 × 2
#>   geo_value .resid
#>   <chr>      <dbl>
#> 1 ak            NA
#> 2 al            NA
#> 3 ar            NA
#> 4 as            NA
#> 5 az            NA
#> 6 ca            NA
#> # ℹ 7,218 more rows
#> 
#> $.pred
#> # A tibble: 56 × 2
#>   geo_value  .pred
#>   <chr>      <dbl>
#> 1 ak        0.0395
#> 2 al        0.107 
#> 3 ar        0.490 
#> 4 as        0     
#> 5 az        0.608 
#> 6 ca        0.142 
#> # ℹ 50 more rows
…
five_days_ahead <- flatline_forecaster(
  jhu,
  outcome = "death_rate",
  flatline_args_list(ahead = 5L)
)

five_days_ahead

#> $predictions
#> An `epi_df` object, 56 x 6 with metadata:
#> * geo_type  = state
#> * time_type = day
#> * as_of     = 2022-05-31 12:08:25
#> 
#> # A tibble: 56 × 6
#>   geo_value time_value  .pred         .pred_distn forecast_date target_date
#> * <chr>     <date>      <dbl>              <dist> <date>        <date>     
#> 1 ak        2021-12-31 0.0395 [0.05, 0.95]<q-rng> 2021-12-31    2022-01-05 
#> 2 al        2021-12-31 0.107  [0.05, 0.95]<q-rng> 2021-12-31    2022-01-05 
#> 3 ar        2021-12-31 0.490  [0.05, 0.95]<q-rng> 2021-12-31    2022-01-05 
#> 4 as        2021-12-31 0      [0.05, 0.95]<q-rng> 2021-12-31    2022-01-05 
#> 5 az        2021-12-31 0.608  [0.05, 0.95]<q-rng> 2021-12-31    2022-01-05 
#> 6 ca        2021-12-31 0.142  [0.05, 0.95]<q-rng> 2021-12-31    2022-01-05 
#> # ℹ 50 more rows
#> 
#> $epi_workflow
#> ══ Epi Workflow [trained] ═══════════════════════════════════════════════════
#> Preprocessor: Recipe
#> Model: linear_reg()
#> Postprocessor: Frosting
#> 
#> ── Preprocessor ─────────────────────────────────────────────────────────────
#> 1 Recipe Step
#> 
#> • step_epi_ahead()
#> 
#> ── Model ────────────────────────────────────────────────────────────────────
#> $residuals
#> # A tibble: 7,112 × 2
#>   geo_value .resid
#>   <chr>      <dbl>
#> 1 ak            NA
#> 2 al            NA
#> 3 ar            NA
#> 4 as            NA
#> 5 az            NA
#> 6 ca            NA
#> # ℹ 7,106 more rows
#> 
#> $.pred
#> # A tibble: 56 × 2
#>   geo_value  .pred
#>   <chr>      <dbl>
#> 1 ak        0.0395
#> 2 al        0.107 
#> 3 ar        0.490 
#> 4 as        0     
#> 5 az        0.608 
#> 6 ca        0.142 
#> # ℹ 50 more rows
…
five_days_ahead <- flatline_forecaster(
  jhu,
  outcome = "death_rate",
  flatline_args_list(ahead = 5L, levels = c(0.1, 0.9))
)

five_days_ahead

#> $predictions
#> An `epi_df` object, 56 x 6 with metadata:
#> * geo_type  = state
#> * time_type = day
#> * as_of     = 2022-05-31 12:08:25
#> 
#> # A tibble: 56 × 6
#>   geo_value time_value  .pred       .pred_distn forecast_date target_date
#> * <chr>     <date>      <dbl>            <dist> <date>        <date>     
#> 1 ak        2021-12-31 0.0395 [0.1, 0.9]<q-rng> 2021-12-31    2022-01-05 
#> 2 al        2021-12-31 0.107  [0.1, 0.9]<q-rng> 2021-12-31    2022-01-05 
#> 3 ar        2021-12-31 0.490  [0.1, 0.9]<q-rng> 2021-12-31    2022-01-05 
#> 4 as        2021-12-31 0      [0.1, 0.9]<q-rng> 2021-12-31    2022-01-05 
#> 5 az        2021-12-31 0.608  [0.1, 0.9]<q-rng> 2021-12-31    2022-01-05 
#> 6 ca        2021-12-31 0.142  [0.1, 0.9]<q-rng> 2021-12-31    2022-01-05 
#> # ℹ 50 more rows
#> 
#> $epi_workflow
#> ══ Epi Workflow [trained] ═══════════════════════════════════════════════════
#> Preprocessor: Recipe
#> Model: linear_reg()
#> Postprocessor: Frosting
#> 
#> ── Preprocessor ─────────────────────────────────────────────────────────────
#> 1 Recipe Step
#> 
#> • step_epi_ahead()
#> 
#> ── Model ────────────────────────────────────────────────────────────────────
#> $residuals
#> # A tibble: 7,112 × 2
#>   geo_value .resid
#>   <chr>      <dbl>
#> 1 ak            NA
#> 2 al            NA
#> 3 ar            NA
#> 4 as            NA
#> 5 az            NA
#> 6 ca            NA
#> # ℹ 7,106 more rows
#> 
#> $.pred
#> # A tibble: 56 × 2
#>   geo_value  .pred
#>   <chr>      <dbl>
#> 1 ak        0.0395
#> 2 al        0.107 
#> 3 ar        0.490 
#> 4 as        0     
#> 5 az        0.608 
#> 6 ca        0.142 
#> # ℹ 50 more rows
…
five_days_ahead$epi_workflow

#> ══ Epi Workflow [trained] ═══════════════════════════════════════════════════
#> Preprocessor: Recipe
#> Model: linear_reg()
#> Postprocessor: Frosting
#> 
#> ── Preprocessor ─────────────────────────────────────────────────────────────
#> 1 Recipe Step
#> 
#> • step_epi_ahead()
#> 
#> ── Model ────────────────────────────────────────────────────────────────────
#> $residuals
#> # A tibble: 7,112 × 2
#>   geo_value .resid
#>   <chr>      <dbl>
#> 1 ak            NA
#> 2 al            NA
#> 3 ar            NA
#> 4 as            NA
#> 5 az            NA
#> 6 ca            NA
#> # ℹ 7,106 more rows
#> 
#> $.pred
#> # A tibble: 56 × 2
#>   geo_value  .pred
#>   <chr>      <dbl>
#> 1 ak        0.0395
#> 2 al        0.107 
#> 3 ar        0.490 
#> 4 as        0     
#> 5 az        0.608 
#> 6 ca        0.142 
#> # ℹ 50 more rows
…
#> Recipe blueprint: 
#>  
#> # Predictors: 0 
#>   # Outcomes: 0 
#>    Intercept: FALSE 
#> Novel Levels: FALSE 
#>  Composition: tibble 
#> 
#> attr(,"class")
#> [1] "action_recipe" "action_pre"    "action"       
#> 
#> 
#> $mold
#> $mold$predictors
#> # A tibble: 7,112 × 3
#>   time_value geo_value death_rate
#>   <date>     <chr>          <dbl>
#> 1 2021-08-27 ak                NA
#> 2 2021-08-27 al                NA
#> 3 2021-08-27 ar                NA
#> 4 2021-08-27 as                NA
#> 5 2021-08-27 az                NA
#> 6 2021-08-27 ca                NA
#> # ℹ 7,106 more rows
#> 
#> $mold$outcomes
#> # A tibble: 7,112 × 1
#>   ahead_5_death_rate
#>                <dbl>
#> 1              0.198
#> 2              0.845
#> 3              0.919
#> 4              0    
#> 5              0.414
#> 6              0.246
#> # ℹ 7,106 more rows
#> 
#> $mold$blueprint
#> Recipe blueprint: 
#>  
#> # Predictors: 3 
#>   # Outcomes: 0 
#>    Intercept: FALSE 
#> Novel Levels: FALSE 
#>  Composition: tibble 
#> 
#> $mold$extras
#> $mold$extras$roles
#> $mold$extras$roles$time_value
#> # A tibble: 7,112 × 1
#>   time_value
#>   <date>    
#> 1 2021-08-27
#> 2 2021-08-27
#> 3 2021-08-27
#> 4 2021-08-27
#> 5 2021-08-27
#> 6 2021-08-27
#> # ℹ 7,106 more rows
#> 
#> $mold$extras$roles$geo_value
#> # A tibble: 7,112 × 1
#>   geo_value
#>   <chr>    
#> 1 ak       
#> 2 al       
#> 3 ar       
#> 4 as       
#> 5 az       
#> 6 ca       
#> # ℹ 7,106 more rows
#> 
#> $mold$extras$roles$raw
#> # A tibble: 7,112 × 1
#>   case_rate
#>       <dbl>
#> 1        NA
#> 2        NA
#> 3        NA
#> 4        NA
#> 5        NA
#> 6        NA
#> # ℹ 7,106 more rows
…
The post-processing operations in the order the that were performed were to create the predictions and the predictive intervals, add the forecast and target dates and bound the predictions at zero.

We can also easily examine the predictions themselves.

five_days_ahead$predictions

#> An `epi_df` object, 56 x 6 with metadata:
#> * geo_type  = state
#> * time_type = day
#> * as_of     = 2022-05-31 12:08:25
#> 
#> # A tibble: 56 × 6
#>   geo_value time_value  .pred       .pred_distn forecast_date target_date
#> * <chr>     <date>      <dbl>            <dist> <date>        <date>     
#> 1 ak        2021-12-31 0.0395 [0.1, 0.9]<q-rng> 2021-12-31    2022-01-05 
#> 2 al        2021-12-31 0.107  [0.1, 0.9]<q-rng> 2021-12-31    2022-01-05 
#> 3 ar        2021-12-31 0.490  [0.1, 0.9]<q-rng> 2021-12-31    2022-01-05 
#> 4 as        2021-12-31 0      [0.1, 0.9]<q-rng> 2021-12-31    2022-01-05 
#> 5 az        2021-12-31 0.608  [0.1, 0.9]<q-rng> 2021-12-31    2022-01-05 
#> 6 ca        2021-12-31 0.142  [0.1, 0.9]<q-rng> 2021-12-31    2022-01-05 
#> # ℹ 50 more rows
…
