Introduction to Epidemiological Forecasting - 9 Inner workings of the framework
…
At predict time, we add this object onto the epi_workflow and call predict()

test_data <- get_test_data(er, jhu)
ewf %>%
  add_frosting(f) %>%
  predict(test_data)

#> An `epi_df` object, 56 x 6 with metadata:
#> * geo_type  = state
#> * time_type = day
#> * as_of     = 2022-05-31 12:08:25.791826
#> 
#> # A tibble: 56 × 6
#>   geo_value time_value  .pred         .pred_distn forecast_date target_date
#> * <chr>     <date>      <dbl>              <dist> <date>        <date>     
#> 1 ak        2021-12-31 0.355  [0.01, 0.99]<q-rng> 2021-12-31    2022-01-07 
#> 2 al        2021-12-31 0.325  [0.01, 0.99]<q-rng> 2021-12-31    2022-01-07 
#> 3 ar        2021-12-31 0.496  [0.01, 0.99]<q-rng> 2021-12-31    2022-01-07 
#> 4 as        2021-12-31 0.0836 [0.01, 0.99]<q-rng> 2021-12-31    2022-01-07 
#> 5 az        2021-12-31 0.614  [0.01, 0.99]<q-rng> 2021-12-31    2022-01-07 
#> 6 ca        2021-12-31 0.327  [0.01, 0.99]<q-rng> 2021-12-31    2022-01-07 
#> # ℹ 50 more rows
…
eng <- linear_reg()
wf <- epi_workflow(r, eng, f) %>% fit(jhu)
preds <- predict(wf, latest)

All that really differs from the arx_forecaster() is the recipe, the test data, and the engine. The frosting is identical, as is the fitting and predicting procedure.

preds

#> An `epi_df` object, 56 x 6 with metadata:
#> * geo_type  = state
#> * time_type = day
#> * as_of     = 2022-05-31 12:08:25.791826
#> 
#> # A tibble: 56 × 6
#>   geo_value time_value .pred         .pred_distn forecast_date target_date
#> * <chr>     <date>     <dbl>              <dist> <date>        <date>     
#> 1 ak        2021-12-31  36.4 [0.05, 0.95]<q-rng> 2021-12-31    2022-01-07 
#> 2 al        2021-12-31  89.9 [0.05, 0.95]<q-rng> 2021-12-31    2022-01-07 
#> 3 ar        2021-12-31  82.6 [0.05, 0.95]<q-rng> 2021-12-31    2022-01-07 
#> 4 as        2021-12-31   0   [0.05, 0.95]<q-rng> 2021-12-31    2022-01-07 
#> 5 az        2021-12-31  58.3 [0.05, 0.95]<q-rng> 2021-12-31    2022-01-07 
#> 6 ca        2021-12-31  84.4 [0.05, 0.95]<q-rng> 2021-12-31    2022-01-07 
#> # ℹ 50 more rows
…
