Introduction to Epidemiological Forecasting - 4 Estimate growth rates in signals
…
The default method is “rel_change”, which is the simplest way to estimate growth rates. The default bandwidth is h = 7, which for daily data, considers the relative change in a signal over adjacent weeks. We can wrap growth_rate() in a call to dplyr::mutate() to append a new column to our epi_df object with the computed growth rates.

x <- x %>%
  group_by(geo_value) %>%
  mutate(cases_gr1 = growth_rate(time_value, cases))

x

#> An `epi_df` object, 1,158 x 4 with metadata:
#> * geo_type  = state
#> * time_type = day
#> * as_of     = 2022-05-23 13:17:07.044666
#> 
#> # A tibble: 1,158 × 4
#> # Groups:   geo_value [2]
#>   geo_value time_value cases cases_gr1
#> * <chr>     <date>     <dbl>     <dbl>
#> 1 ga        2020-06-01  643.   0.00601
#> 2 ga        2020-06-02  603.   0.0185 
#> 3 ga        2020-06-03  608    0.0240 
#> 4 ga        2020-06-04  656.   0.0218 
#> 5 ga        2020-06-05  677.   0.0193 
#> 6 ga        2020-06-06  718.   0.0163 
#> # ℹ 1,152 more rows
…
