Introduction to Epidemiological Forecasting
…
Intermediate example

The package comes with some built-in historical data for illustration, but up-to-date versions of this could be downloaded with the {covidcast} package and processed using {epiprocess}.1

library(epipredict)
jhu <- case_death_rate_subset
jhu

#> An `epi_df` object, 20,496 x 4 with metadata:
#> * geo_type  = state
#> * time_type = day
#> * as_of     = 2022-05-31 12:08:25
#> 
#> # A tibble: 20,496 × 4
#>   geo_value time_value case_rate death_rate
#> * <chr>     <date>         <dbl>      <dbl>
#> 1 ak        2020-12-31      35.9      0.158
#> 2 al        2020-12-31      65.1      0.438
#> 3 ar        2020-12-31      66.0      1.27 
#> 4 as        2020-12-31       0        0    
#> 5 az        2020-12-31      76.8      1.10 
#> 6 ca        2020-12-31      96.0      0.751
#> # ℹ 20,490 more rows
…
The fitted model here involved preprocessing the data to appropriately generate lagged predictors, estimating a linear model with stats::lm() and then postprocessing the results to be meaningful for epidemiological tasks. We can also examine the predictions.

two_week_ahead$predictions

#> An `epi_df` object, 56 x 6 with metadata:
#> * geo_type  = state
#> * time_type = day
#> * as_of     = 2022-05-31 12:08:25
#> 
#> # A tibble: 56 × 6
#>   geo_value time_value .pred         .pred_distn forecast_date target_date
#> * <chr>     <date>     <dbl>              <dist> <date>        <date>     
#> 1 ak        2021-12-31 0.449 [0.05, 0.95]<q-rng> 2021-12-31    2022-01-14 
#> 2 al        2021-12-31 0.574 [0.05, 0.95]<q-rng> 2021-12-31    2022-01-14 
#> 3 ar        2021-12-31 0.673 [0.05, 0.95]<q-rng> 2021-12-31    2022-01-14 
#> 4 as        2021-12-31 0     [0.05, 0.95]<q-rng> 2021-12-31    2022-01-14 
#> 5 az        2021-12-31 0.679 [0.05, 0.95]<q-rng> 2021-12-31    2022-01-14 
#> 6 ca        2021-12-31 0.575 [0.05, 0.95]<q-rng> 2021-12-31    2022-01-14 
#> # ℹ 50 more rows
…
