Introduction to Epidemiological Forecasting - 6 Detect and correct outliers in signals
…
x

#> An `epi_df` object, 730 x 15 with metadata:
#> * geo_type  = state
#> * time_type = day
#> * as_of     = 2022-05-21 15:17:14.962335
#> 
#> # A tibble: 730 × 15
#>   geo_value time_value cases rm_lower rm_upper rm_replacement
#> * <chr>     <date>     <dbl>    <dbl>    <dbl>          <dbl>
#> 1 fl        2020-06-01   667    345      2195             667
#> 2 nj        2020-06-01   486     64.4     926.            486
#> 3 fl        2020-06-02   617    406.     2169.            617
#> 4 nj        2020-06-02   658    140.      841.            658
#> 5 fl        2020-06-03  1317    468.     2142.           1317
#> 6 nj        2020-06-03   541    216       756             541
#> # ℹ 724 more rows
#> # ℹ 9 more variables: stl_seasonal_lower <dbl>, stl_seasonal_upper <dbl>, …
…
Finally, in order to correct outliers, we can use the posited replacement values returned by each outlier detection method. Below we use the replacement value from the combined method, which is defined by the median of replacement values from the base methods at each time point.

y <- x %>%
  mutate(cases_corrected = combined_replacement) %>%
  select(geo_value, time_value, cases, cases_corrected)

y %>% filter(cases != cases_corrected)

#> An `epi_df` object, 22 x 4 with metadata:
#> * geo_type  = state
#> * time_type = day
#> * as_of     = 2022-05-21 15:17:14.962335
#> 
#> # A tibble: 22 × 4
#>   geo_value time_value cases cases_corrected
#> * <chr>     <date>     <dbl>           <dbl>
#> 1 fl        2020-07-12 15300          10181 
#> 2 nj        2020-07-19    -8            320.
#> 3 nj        2020-08-13   694            404.
#> 4 nj        2020-08-14   619            397.
#> 5 nj        2020-08-16    40            366 
#> 6 nj        2020-08-22   555            360 
#> # ℹ 16 more rows
…
