Introduction to Epidemiological Forecasting - 5 Examples of Preprocessing and Models
…
We want to predict death rates on 2022-01-07, which is 7 days ahead of the latest available date in our dataset.

We will compare two methods of trying to create lags and leads:

p1 <- epi_recipe(ex) %>%
  step_epi_lag(case_rate, lag = c(0, 7, 14)) %>%
  step_epi_lag(death_rate, lag = c(0, 7, 14)) %>%
  step_epi_ahead(death_rate, ahead = 7, role = "outcome") %>%
  step_epi_naomit() %>%
  prep()

b1 <- bake(p1, ex)
b1

#> # A tibble: 17 × 11
#>   time_value geo_value case_rate death_rate lag_0_case_rate lag_7_case_rate
#>   <date>     <chr>         <dbl>      <dbl>           <dbl>           <dbl>
#> 1 2021-12-15 ca             15.8      0.157            15.8            18.0
#> 2 2021-12-16 ca             16.3      0.155            16.3            17.4
#> 3 2021-12-17 ca             16.9      0.158            16.9            17.4
#> 4 2021-12-18 ca             17.6      0.164            17.6            17.2
#> 5 2021-12-19 ca             19.1      0.165            19.1            16.3
#> 6 2021-12-20 ca             20.6      0.164            20.6            16.0
#> # ℹ 11 more rows
#> # ℹ 5 more variables: lag_14_case_rate <dbl>, lag_0_death_rate <dbl>, …
…
b2 <- bake(p2, ex)
b2

#> # A tibble: 10 × 11
#>   time_value geo_value case_rate death_rate lag0case_rate lag7case_rate
#>   <date>     <chr>         <dbl>      <dbl>         <dbl>         <dbl>
#> 1 2021-12-15 ca             15.8      0.157          15.8          18.0
#> 2 2021-12-16 ca             16.3      0.155          16.3          17.4
#> 3 2021-12-17 ca             16.9      0.158          16.9          17.4
#> 4 2021-12-18 ca             17.6      0.164          17.6          17.2
#> 5 2021-12-19 ca             19.1      0.165          19.1          16.3
#> 6 2021-12-20 ca             20.6      0.164          20.6          16.0
#> # ℹ 4 more rows
#> # ℹ 5 more variables: lag14case_rate <dbl>, lag0death_rate <dbl>, …

Notice the difference in number of rows b1 and b2 returns. This is because the second version, the one that doesn’t use step_epi_ahead and step_epi_lag, has omitted dates compared to the one that used the epipredict functions.

dates_used_in_training1 <- b1 %>%
  select(-ahead_7_death_rate) %>%
  na.omit() %>%
  select(time_value)
dates_used_in_training1

#> # A tibble: 17 × 1
#>   time_value
#>   <date>    
#> 1 2021-12-15
#> 2 2021-12-16
#> 3 2021-12-17
#> 4 2021-12-18
#> 5 2021-12-19
#> 6 2021-12-20
#> # ℹ 11 more rows

dates_used_in_training2 <- b2 %>%
  select(-ahead7death_rate) %>%
  na.omit() %>%
  select(time_value)
dates_used_in_training2

#> # A tibble: 10 × 1
#>   time_value
#>   <date>    
#> 1 2021-12-15
#> 2 2021-12-16
#> 3 2021-12-17
#> 4 2021-12-18
#> 5 2021-12-19
#> 6 2021-12-20
#> # ℹ 4 more rows
…
