Introduction to Epidemiological Forecasting - 3 Sliding computations
…
3.1 Slide with a formula

We first demonstrate how to apply a 7-day trailing average to the daily cases in order to smooth the signal, by passing in a formula for the first argument of epi_slide(). To do this computation per state, we first call group_by().

x %>%
  group_by(geo_value) %>%
  epi_slide(~ mean(.x$cases), before = 6) %>%
  ungroup()

#> An `epi_df` object, 4,026 x 4 with metadata:
#> * geo_type  = state
#> * time_type = day
#> * as_of     = 2022-05-23 13:17:07.044666
#> 
#> # A tibble: 4,026 × 4
#>   geo_value time_value cases slide_value
#> * <chr>     <date>     <dbl>       <dbl>
#> 1 ca        2020-03-01     6        6   
#> 2 ca        2020-03-02     4        5   
#> 3 ca        2020-03-03     6        5.33
#> 4 ca        2020-03-04    11        6.75
#> 5 ca        2020-03-05    10        7.4 
#> 6 ca        2020-03-06    18        9.17
#> # ℹ 4,020 more rows

The formula specified has access to all non-grouping columns present in the original epi_df object (and must refer to them with the prefix .x$). As we can see, the function epi_slide() returns an epi_df object with a new column appended that contains the results (from sliding), named slide_value as the default. We can of course change this post hoc, or we can instead specify a new name up front using the new_col_name argument:

x %>%
  group_by(geo_value) %>%
  epi_slide(~ mean(.x$cases), before = 6, new_col_name = "cases_7dav") %>%
  ungroup()

#> An `epi_df` object, 4,026 x 4 with metadata:
#> * geo_type  = state
#> * time_type = day
#> * as_of     = 2022-05-23 13:17:07.044666
#> 
#> # A tibble: 4,026 × 4
#>   geo_value time_value cases cases_7dav
#> * <chr>     <date>     <dbl>      <dbl>
#> 1 ca        2020-03-01     6       6   
#> 2 ca        2020-03-02     4       5   
#> 3 ca        2020-03-03     6       5.33
#> 4 ca        2020-03-04    11       6.75
#> 5 ca        2020-03-05    10       7.4 
#> 6 ca        2020-03-06    18       9.17
#> # ℹ 4,020 more rows
…
Recreating the last example of a 7-day trailing average:

x %>%
  group_by(geo_value) %>%
  epi_slide(function(x, gk, rtv) mean(x$cases),
    before = 6, new_col_name = "cases_7dav"
  ) %>%
  ungroup()

#> An `epi_df` object, 4,026 x 4 with metadata:
#> * geo_type  = state
#> * time_type = day
#> * as_of     = 2022-05-23 13:17:07.044666
#> 
#> # A tibble: 4,026 × 4
#>   geo_value time_value cases cases_7dav
#> * <chr>     <date>     <dbl>      <dbl>
#> 1 ca        2020-03-01     6       6   
#> 2 ca        2020-03-02     4       5   
#> 3 ca        2020-03-03     6       5.33
#> 4 ca        2020-03-04    11       6.75
#> 5 ca        2020-03-05    10       7.4 
#> 6 ca        2020-03-06    18       9.17
#> # ℹ 4,020 more rows
…
# grab just the relevant columns, and make them easier to plot
fcasts <- fcasts %>%
  select(
    geo_value, time_value, cases_7dav,
    contains("_distn"), fc_target_date
  ) %>%
  pivot_quantiles(contains("_distn"))
fcasts

#> # A tibble: 114 × 7
#>   geo_value time_value cases_7dav fc_target_date `0.05` `0.5` `0.95`
#>   <chr>     <date>          <dbl> <date>          <dbl> <dbl>  <dbl>
#> 1 ca        2020-06-01      2655. 2020-06-08      1940. 2694.  3840.
#> 2 fl        2020-06-01       726. 2020-06-08       558.  747.  1290.
#> 3 ga        2020-06-01       643. 2020-06-08       520.  638.  1083.
#> 4 ny        2020-06-01      1278. 2020-06-08       821. 1044.  1864.
#> 5 pa        2020-06-01       603. 2020-06-08       450.  570.  1080.
#> 6 tx        2020-06-01      1002. 2020-06-08       716. 1134.  1950.
#> # ℹ 108 more rows
…
