Introduction to Epidemiological Forecasting - 12 Regression in Tidymodels
…
glance(lm_fit)

#> # A tibble: 1 × 12
#>   r.squared adj.r.squared sigma statistic   p.value    df logLik   AIC   BIC
#>       <dbl>         <dbl> <dbl>     <dbl>     <dbl> <dbl>  <dbl> <dbl> <dbl>
#> 1    0.0523        0.0494  5.33      18.3 0.0000253     1 -1029. 2064. 2075.
#> # ℹ 3 more variables: deviance <dbl>, df.residual <int>, nobs <int>

Now, to make predictions, we simply use predict() on the parnsip model object. In there, we must specify the dataset we want to predict on in the new_data argument. Note that this may be a different dataset than we used for fitting the model, but this input data must include all predictor variables that were used to fit the model.

predict(lm_fit, new_data = penguins)

#> # A tibble: 333 × 1
#>   .pred
#>   <dbl>
#> 1  43.0
#> 2  43.8
#> 3  43.5
#> 4  42.6
#> 5  41.8
#> 6  43.6
#> # ℹ 327 more rows

For parnsip models, the predictions are always outputted in a tibble.

To specify the type of prediction made, modify type argument. If we set type = "conf_int", we get a 95% confidence interval.

predict(lm_fit, new_data = penguins, type = "conf_int")

#> # A tibble: 333 × 2
#>   .pred_lower .pred_upper
#>         <dbl>       <dbl>
#> 1        42.3        43.7
#> 2        43.3        44.4
#> 3        42.8        44.1
#> 4        41.8        43.5
#> 5        40.7        43.0
#> 6        43.0        44.2
#> # ℹ 327 more rows

To evaluate model predictive performance, it is logical to compare the each of the observed and predicted values. To see these values side-by-side we simply bind the two vectors of interest.

bind_cols(
  predict(lm_fit, new_data = penguins),
  penguins
) %>%
  select(bill_length_mm, .pred)

#> # A tibble: 333 × 2
#>   bill_length_mm .pred
#>            <dbl> <dbl>
#> 1           39.1  43.0
#> 2           39.5  43.8
#> 3           40.3  43.5
#> 4           36.7  42.6
#> 5           39.3  41.8
#> 6           38.9  43.6
#> # ℹ 327 more rows

A simpler way to do this is to use the nifty augment() function.

augment(lm_fit, new_data = penguins) %>%
  select(bill_length_mm, .pred)

#> # A tibble: 333 × 2
#>   bill_length_mm .pred
#>            <dbl> <dbl>
#> 1           39.1  43.0
#> 2           39.5  43.8
#> 3           40.3  43.5
#> 4           36.7  42.6
#> 5           39.3  41.8
#> 6           38.9  43.6
#> # ℹ 327 more rows
…
tidy(lm_fit2)

#> # A tibble: 4 × 5
#>   term                estimate std.error statistic  p.value
#>   <chr>                  <dbl>     <dbl>     <dbl>    <dbl>
#> 1 (Intercept)       -25.7       6.72        -3.83  1.55e- 4
#> 2 bill_depth_mm       0.613     0.138        4.43  1.26e- 5
#> 3 flipper_length_mm   0.287     0.0351       8.18  6.28e-15
#> 4 body_mass_g         0.000347  0.000566     0.614 5.40e- 1

as well as predicting new values.

predict(lm_fit2, new_data = penguins)

#> # A tibble: 333 × 1
#>   .pred
#>   <dbl>
#> 1  39.0
#> 2  39.7
#> 3  42.5
#> 4  42.8
#> 5  42.8
#> 6  38.4
#> # ℹ 327 more rows
…
