Introduction to Epidemiological Forecasting - 11 Introduction to Tidymodels
…
Up to this point we have

Built the model (penguins_ranger)

Created a pre-processing recipe (penguins_recipe),

Paired the model and recipe (penguins_wflow), and

Trained our workflow using fit().

So the next step is to use the trained workflow, penguins_fit, to predict with the test data. This is easily done with a call to predict().

predict(penguins_fit, test_data)

#> # A tibble: 100 × 1
#>   .pred_class
#>   <fct>      
#> 1 Adelie     
#> 2 Adelie     
#> 3 Adelie     
#> 4 Chinstrap  
#> 5 Adelie     
#> 6 Adelie     
#> # ℹ 94 more rows
…
Alternatively, we can use the augment() function to obtain the predicted probabilities and add them to the test data in a one-liner.

penguins_aug <- augment(penguins_fit, test_data)

penguins_aug

#> # A tibble: 100 × 8
#>   species bill_length_mm bill_depth_mm flipper_length_mm .pred_class
#>   <fct>            <dbl>         <dbl>             <int> <fct>      
#> 1 Adelie            39.5          17.4               186 Adelie     
#> 2 Adelie            40.3          18                 195 Adelie     
#> 3 Adelie            38.7          19                 195 Adelie     
#> 4 Adelie            46            21.5               194 Chinstrap  
#> 5 Adelie            35.9          19.2               189 Adelie     
#> 6 Adelie            38.2          18.1               185 Adelie     
#> # ℹ 94 more rows
#> # ℹ 3 more variables: .pred_Adelie <dbl>, .pred_Chinstrap <dbl>, …
…
